%YAML 1.1
%TAG !u! tag:unity3d.com,2011:
--- !u!114 &11400000
MonoBehaviour:
  m_ObjectHideFlags: 0
  m_CorrespondingSourceObject: {fileID: 0}
  m_PrefabInstance: {fileID: 0}
  m_PrefabAsset: {fileID: 0}
  m_GameObject: {fileID: 0}
  m_Enabled: 1
  m_EditorHideFlags: 0
  m_Script: {fileID: 11500000, guid: bbb281ee3bf0b054c82ac2347e9e782c, type: 3}
  m_Name: Main
  m_EditorClassIdentifier: 
  m_GroupName: Main
  m_Data:
    m_SerializedData: []
  m_GUID: c523d6ee06e78c348882ae8acd3c7d3e
  m_SerializeEntries:
  - m_GUID: 0280e707e90b3784987b34ffd201354c
    m_Address: FreezeProjectile
    m_ReadOnly: 0
    m_SerializedLabels:
    - Meshes
    m_MainAsset: {fileID: 0}
    m_TargetAsset: {fileID: 0}
  - m_GUID: 08915eec7eb275c469682904d74445c9
    m_Address: NameWarningUI
    m_ReadOnly: 0
    m_SerializedLabels:
    - UI
    m_MainAsset: {fileID: 0}
    m_TargetAsset: {fileID: 0}
  - m_GUID: 0ad956c0ebd434a46abfd087dfde8b6d
    m_Address: IndividualScoreBoardHUD
    m_ReadOnly: 0
    m_SerializedLabels:
    - UI
    m_MainAsset: {fileID: 0}
    m_TargetAsset: {fileID: 0}
  - m_GUID: 0bec31bb27895704787d17d9e0c319d8
    m_Address: BGpack
    m_ReadOnly: 0
    m_SerializedLabels:
    - UI
    m_MainAsset: {fileID: 0}
    m_TargetAsset: {fileID: 0}
  - m_GUID: 0bfd2fa6423ab8041aa4430038e361c2
    m_Address: SparkImpacts
    m_ReadOnly: 0
    m_SerializedLabels:
    - Particles
    m_MainAsset: {fileID: 0}
    m_TargetAsset: {fileID: 0}
  - m_GUID: 0f85c404b866c6142aaa07d893cce287
    m_Address: ControllerHUD
    m_ReadOnly: 0
    m_SerializedLabels:
    - UI
    m_MainAsset: {fileID: 0}
    m_TargetAsset: {fileID: 0}
  - m_GUID: ef1da0c2788aad14aaffda1ee670d3e9
    m_Address: LobbyUI
    m_ReadOnly: 0
    m_SerializedLabels:
    - UI
    m_MainAsset: {fileID: 4740778955917998662, guid: ef1da0c2788aad14aaffda1ee670d3e9, type: 3}
    m_TargetAsset: {fileID: 4740778955917998662, guid: ef1da0c2788aad14aaffda1ee670d3e9, type: 3}
  - m_GUID: 160ec8325c41b8d4eb83957c0c68367a
    m_Address: CharacterDetail
    m_ReadOnly: 0
    m_SerializedLabels:
    - UI
    m_MainAsset: {fileID: 0}
    m_TargetAsset: {fileID: 0}
  - m_GUID: 19134eea9867c0242a1c1ddb4c087dc0
    m_Address: TwinkleStarParticles
    m_ReadOnly: 0
    m_SerializedLabels:
    - Meshes
    m_MainAsset: {fileID: 0}
    m_TargetAsset: {fileID: 0}
  - m_GUID: 24d3a00d8409bba48b60fbfeb02e322f
    m_Address: validation loading
    m_ReadOnly: 0
    m_SerializedLabels:
    - UI
    m_MainAsset: {fileID: 0}
    m_TargetAsset: {fileID: 0}
  - m_GUID: 2d659f8e56130634baf11554b01790ae
    m_Address: ZoomEffectHUD
    m_ReadOnly: 0
    m_SerializedLabels:
    - UI
    m_MainAsset: {fileID: 0}
    m_TargetAsset: {fileID: 0}
  - m_GUID: 3390cc513e90e114dbaeeeba7582ba73
    m_Address: CreateRandomRoomUI
    m_ReadOnly: 0
    m_SerializedLabels:
    - UI
    m_MainAsset: {fileID: 0}
    m_TargetAsset: {fileID: 0}
  - m_GUID: 343ad758097a0244aa07e8b2f0cb452a
    m_Address: ConnectingUI
    m_ReadOnly: 0
    m_SerializedLabels:
    - UI
    m_MainAsset: {fileID: 0}
    m_TargetAsset: {fileID: 0}
  - m_GUID: 35c7821b52755ad488c7766985a548b8
    m_Address: Shop
    m_ReadOnly: 0
    m_SerializedLabels:
    - UI
    m_MainAsset: {fileID: 0}
    m_TargetAsset: {fileID: 0}
  - m_GUID: 3b496efc7268ea34ebb6efea9fba03d0
    m_Address: ExplosionMain
    m_ReadOnly: 0
    m_SerializedLabels:
    - Particles
    m_MainAsset: {fileID: 0}
    m_TargetAsset: {fileID: 0}
  - m_GUID: 3bf8cc4826a262242827e75aca994af9
    m_Address: CreateRoomUI
    m_ReadOnly: 0
    m_SerializedLabels:
    - UI
    m_MainAsset: {fileID: 0}
    m_TargetAsset: {fileID: 0}
  - m_GUID: 4503aefb1c44e824f8761e979acfd8b4
    m_Address: mainmenupodium
    m_ReadOnly: 0
    m_SerializedLabels:
    - Meshes
    m_MainAsset: {fileID: 0}
    m_TargetAsset: {fileID: 0}
  - m_GUID: 475ce875a6b5ecc44b7c1d4be9783323
    m_Address: SpInvulnerableEffect
    m_ReadOnly: 0
    m_SerializedLabels:
    - Particles
    m_MainAsset: {fileID: 0}
    m_TargetAsset: {fileID: 0}
  - m_GUID: 4ad53d587873a7c4e91794f50bd09cb2
    m_Address: BoxImpactsVFX
    m_ReadOnly: 0
    m_SerializedLabels:
    - Particles
    m_MainAsset: {fileID: 0}
    m_TargetAsset: {fileID: 0}
  - m_GUID: 4e1672598c93da24fbaad9be5d6c5a25
    m_Address: WaitingOtherOpponent
    m_ReadOnly: 0
    m_SerializedLabels:
    - UI
    m_MainAsset: {fileID: 0}
    m_TargetAsset: {fileID: 0}
  - m_GUID: 575d2a40198833e4f97f6b663d3b5de6
    m_Address: CanvasconnectionlostCombat
    m_ReadOnly: 0
    m_SerializedLabels:
    - UI
    m_MainAsset: {fileID: 0}
    m_TargetAsset: {fileID: 0}
  - m_GUID: 5a7a0390e437f0d45b25a146ca9f6d99
    m_Address: InvincibilityBall
    m_ReadOnly: 0
    m_SerializedLabels:
    - Meshes
    m_MainAsset: {fileID: 0}
    m_TargetAsset: {fileID: 0}
  - m_GUID: 6988c742baaca1c40b09855c3c26d90e
    m_Address: Arrow
    m_ReadOnly: 0
    m_SerializedLabels:
    - Meshes
    m_MainAsset: {fileID: 0}
    m_TargetAsset: {fileID: 0}
  - m_GUID: 6eb0eec4368b6e043872c1cb572da577
    m_Address: Canvasconnectionlost
    m_ReadOnly: 0
    m_SerializedLabels:
    - UI
    m_MainAsset: {fileID: 0}
    m_TargetAsset: {fileID: 0}
  - m_GUID: 79cfaeff1c960c14d92f524e5ee348d3
    m_Address: Flying Particles
    m_ReadOnly: 0
    m_SerializedLabels:
    - Particles
    m_MainAsset: {fileID: 0}
    m_TargetAsset: {fileID: 0}
  - m_GUID: 7e6f5e5c10a3f35458f9f9c086de83a9
    m_Address: LandMine
    m_ReadOnly: 0
    m_SerializedLabels:
    - Meshes
    m_MainAsset: {fileID: 0}
    m_TargetAsset: {fileID: 0}
  - m_GUID: 837cf5d398d70d6418924faaed1a3183
    m_Address: BoxImpactsVFX_2
    m_ReadOnly: 0
    m_SerializedLabels:
    - Particles
    m_MainAsset: {fileID: 0}
    m_TargetAsset: {fileID: 0}
  - m_GUID: 86d332a7394d762458a74d7c72410ca0
    m_Address: Coins
    m_ReadOnly: 0
    m_SerializedLabels:
    - Meshes
    m_MainAsset: {fileID: 0}
    m_TargetAsset: {fileID: 0}
  - m_GUID: 8ce493090dd6ce24c994646cb11c4690
    m_Address: MatchHUD
    m_ReadOnly: 0
    m_SerializedLabels:
    - UI
    m_MainAsset: {fileID: 0}
    m_TargetAsset: {fileID: 0}
  - m_GUID: 8ee0080195bd01346ac0a69cd9547b52
    m_Address: Setting
    m_ReadOnly: 0
    m_SerializedLabels:
    - UI
    m_MainAsset: {fileID: 0}
    m_TargetAsset: {fileID: 0}
  - m_GUID: 9136817d2483cb54cb8697b3c98777a9
    m_Address: RoomUI
    m_ReadOnly: 0
    m_SerializedLabels:
    - UI
    m_MainAsset: {fileID: 0}
    m_TargetAsset: {fileID: 0}
  - m_GUID: 9434709657352d444b99db34288df93e
    m_Address: SpBoostEffect
    m_ReadOnly: 0
    m_SerializedLabels:
    - Particles
    m_MainAsset: {fileID: 0}
    m_TargetAsset: {fileID: 0}
  - m_GUID: a10a24ff07b44a040be9c37199e3ea92
    m_Address: RoomListUI
    m_ReadOnly: 0
    m_SerializedLabels:
    - UI
    m_MainAsset: {fileID: 0}
    m_TargetAsset: {fileID: 0}
  - m_GUID: a2d9c5cd321dcd24d8dbccc1158710a8
    m_Address: BoxImpactsVFX_3
    m_ReadOnly: 0
    m_SerializedLabels:
    - Particles
    m_MainAsset: {fileID: 0}
    m_TargetAsset: {fileID: 0}
  - m_GUID: a626d91596a54a544bf5d37e6e2a8fc2
    m_Address: SimpleSparksUp
    m_ReadOnly: 0
    m_SerializedLabels:
    - Particles
    m_MainAsset: {fileID: 0}
    m_TargetAsset: {fileID: 0}
  - m_GUID: b1104167814ca0e42bb605ea71dd025c
    m_Address: PlayerOnLobbyUI
    m_ReadOnly: 0
    m_SerializedLabels:
    - UI
    m_MainAsset: {fileID: 0}
    m_TargetAsset: {fileID: 0}
  - m_GUID: b67cab42c0730da4ba1ca11815d0e5ad
    m_Address: MinimapHUD
    m_ReadOnly: 0
    m_SerializedLabels:
    - UI
    m_MainAsset: {fileID: 0}
    m_TargetAsset: {fileID: 0}
  - m_GUID: caaffa7f3c70fa74db98606a475e8214
    m_Address: ChatCanvas
    m_ReadOnly: 0
    m_SerializedLabels:
    - UI
    m_MainAsset: {fileID: 0}
    m_TargetAsset: {fileID: 0}
  - m_GUID: cc4fa8a3f38b7644db71811d96a5ec9e
    m_Address: BoxImpactsVFX_4
    m_ReadOnly: 0
    m_SerializedLabels:
    - Particles
    m_MainAsset: {fileID: 0}
    m_TargetAsset: {fileID: 0}
  - m_GUID: d0b03f29812947d4d871f29280b06db4
    m_Address: Menu Headers
    m_ReadOnly: 0
    m_SerializedLabels:
    - UI
    m_MainAsset: {fileID: 0}
    m_TargetAsset: {fileID: 0}
  - m_GUID: d4032152480c9384794386699f5a0ce3
    m_Address: LoadingUI
    m_ReadOnly: 0
    m_SerializedLabels:
    - UI
    m_MainAsset: {fileID: 0}
    m_TargetAsset: {fileID: 0}
  - m_GUID: dd3bb2e89e31f324fb6a5723a9bc68b8
    m_Address: Main Menu
    m_ReadOnly: 0
    m_SerializedLabels:
    - Meshes
    m_MainAsset: {fileID: 0}
    m_TargetAsset: {fileID: 0}
  - m_GUID: df8b65524796042479a932e3b6b59184
    m_Address: ImpactsVFX
    m_ReadOnly: 0
    m_SerializedLabels:
    - Particles
    m_MainAsset: {fileID: 0}
    m_TargetAsset: {fileID: 0}
  - m_GUID: df907c3e530cd754e96b62efd74bf4f4
    m_Address: Quest
    m_ReadOnly: 0
    m_SerializedLabels:
    - UI
    m_MainAsset: {fileID: 0}
    m_TargetAsset: {fileID: 0}
  - m_GUID: e38b24f1d4e18a6418e5a6b12f7377f5
    m_Address: Roomlist
    m_ReadOnly: 0
    m_SerializedLabels:
    - UI
    m_MainAsset: {fileID: 0}
    m_TargetAsset: {fileID: 0}
  - m_GUID: e3e957eec2dc51d45aa21c8707520603
    m_Address: FadeScreenUI
    m_ReadOnly: 0
    m_SerializedLabels:
    - UI
    m_MainAsset: {fileID: 0}
    m_TargetAsset: {fileID: 0}
  - m_GUID: e831e203542634e4499ca91f8d831b59
    m_Address: SpAttackEffect
    m_ReadOnly: 0
    m_SerializedLabels:
    - Particles
    m_MainAsset: {fileID: 0}
    m_TargetAsset: {fileID: 0}
  - m_GUID: f018d046ba618aa419538808eb76a1f1
    m_Address: Shockwave_MbahVFX
    m_ReadOnly: 0
    m_SerializedLabels:
    - Particles
    m_MainAsset: {fileID: 0}
    m_TargetAsset: {fileID: 0}
  - m_GUID: f4c18c1d88925614fb89315c048d9ee4
    m_Address: Glitter Main Particles
    m_ReadOnly: 0
    m_SerializedLabels:
    - Particles
    m_MainAsset: {fileID: 0}
    m_TargetAsset: {fileID: 0}
  - m_GUID: fee8d6581cdfe814bafc68d0712e2915
    m_Address: Character Selection
    m_ReadOnly: 0
    m_SerializedLabels:
    - UI
    m_MainAsset: {fileID: 0}
    m_TargetAsset: {fileID: 0}
  m_ReadOnly: 0
  m_Settings: {fileID: 11400000, guid: 4cba4e7ff48042941a49850310dbc4e0, type: 2}
  m_SchemaSet:
    m_Schemas:
    - {fileID: 11400000, guid: 9dfa8587151929344b590dda9f7305ae, type: 2}
    - {fileID: 11400000, guid: d6d9197ce12dd0c4881c339104c7a2e3, type: 2}
