%YAML 1.1
%TAG !u! tag:unity3d.com,2011:
--- !u!114 &11400000
MonoBehaviour:
  m_ObjectHideFlags: 0
  m_CorrespondingSourceObject: {fileID: 0}
  m_PrefabInstance: {fileID: 0}
  m_PrefabAsset: {fileID: 0}
  m_GameObject: {fileID: 0}
  m_Enabled: 1
  m_EditorHideFlags: 0
  m_Script: {fileID: 11500000, guid: 9f3758f8f58fdef43803eb9be1df0608, type: 3}
  m_Name: PhotonServerSettings
  m_EditorClassIdentifier: 
  AppSettings:
    AppIdRealtime: 5dce24ed-63bf-46c7-95b5-cde72735d9fe
    AppIdChat: a738c2a8-e1be-4a47-a482-1052baca1ba3
    AppIdVoice: 
    AppVersion: 0.2
    UseNameServer: 1
    FixedRegion: 
    Server: 
    Port: 0
    ProxyServer: 
    Protocol: 0
    EnableProtocolFallback: 1
    AuthMode: 0
    EnableLobbyStatistics: 0
    NetworkLogging: 1
  DevRegion: asia
  PunLogging: 0
  EnableSupportLogger: 0
  RunInBackground: 1
  StartInOfflineMode: 0
  RpcList:
  - ClickRpc
  - DestroyRpc
  - DestroySpaceship
  - Fire
  - RespawnSpaceship
  - SpawnPlayer
  - SpawnMe
  - SpawnObject
  - ActiveRagdollNetwork
  - DeactiveRagdollNetwork
  - DoPickupNetwork
  - ActivateRagdollNetwork
  - SetDestination
  - RPC_PickUp
  - RPC_OnTravelState
  - RPC_PlayAnim
  - RPC_SeatModeState
  - RPC_SetDestination
  - RPC_SetOnTravelState
  - RPC_SetTravelState
  - SpawnLoadingPlease
  - RemoveGameLauncher
  - SetIsLoadedLevel
  - RaisePowerEvents
  - DoneAbilties
  - RPC_DoneTravelling
  - RPC_ActivateArrow
  - RPC_DeactivateArrow
  - UpdateScoreGlobally
  - RPC_SetIsLoadedLevel
  - RPC_SpawnObject
  - RPC_UpdateScoreGlobally
  - RPC_UpdateTimeGlobally
  - RPC_RemoveMasterClientPlayerBoard
  - RPC_BoxSpawn
  - RPC_Deleter
  - RPC_Destroy
  - RPC_GetPowerBox
  - RPC_HideBox
  - RPC_PlayerFall
  - RPC_ReleasePowerBox
  - RPC_SetBoxPow
  - RPC_CatchLandmine
  - RPC_OnStealState
  - RPC_SetOnChargeState
  DisableAutoOpenWizard: 1
  ShowSettings: 1
  DevRegionSetOnce: 1
