%YAML 1.1
%TAG !u! tag:unity3d.com,2011:
--- !u!21 &2100000
Material:
  serializedVersion: 6
  m_ObjectHideFlags: 2
  m_CorrespondingSourceObject: {fileID: 0}
  m_PrefabInstance: {fileID: 0}
  m_PrefabAsset: {fileID: 0}
  m_Name: Windwaker
  m_Shader: {fileID: -6465566751694194690, guid: 10416c1feb2f3534aab605d9ae0200d4,
    type: 3}
  m_ShaderKeywords: 
  m_LightmapFlags: 4
  m_EnableInstancingVariants: 0
  m_DoubleSidedGI: 0
  m_CustomRenderQueue: -1
  stringTagMap: {}
  disabledShaderPasses: []
  m_SavedProperties:
    serializedVersion: 3
    m_TexEnvs:
    - _CausticsTexture:
        m_Texture: {fileID: 0}
        m_Scale: {x: 1, y: 1}
        m_Offset: {x: 0, y: 0}
    - _ColorGradientTexture:
        m_Texture: {fileID: 0}
        m_Scale: {x: 1, y: 1}
        m_Offset: {x: 0, y: 0}
    - _IntersectionFoamTexture:
        m_Texture: {fileID: 2800000, guid: 772031b03d9d46e4ab03e15c8e17718c, type: 3}
        m_Scale: {x: 1, y: 1}
        m_Offset: {x: 0, y: 0}
    - _SurfaceFoamTexture:
        m_Texture: {fileID: 2800000, guid: d3b0d77dfe711a04c8ff18ecc260aa66, type: 3}
        m_Scale: {x: 1, y: 1}
        m_Offset: {x: 0, y: 0}
    m_Floats:
    - COLOR_GRADIENT: 0
    - VERTEX_COLORS: 0
    - _CausticsDepth: 0
    - _CausticsStrength: 0
    - _ColorContrast: 1
    - _ColorDepth: 0
    - _ColorSaturation: 1
    - _HorizonDistanceColor: 20
    - _IntersectionFoamCutoff: 0.53
    - _IntersectionFoamDepth: 0.55
    - _IntersectionFoamDistortion: 0
    - _ShoreFade: 0
    - _SurfaceFoamCutoff: 0.5
    - _SurfaceFoamDistortion: 0.41
    m_Colors:
    - _CausticsVisuals: {r: 0, g: 0, b: 0, a: 0.1}
    - _DeepColor: {r: 0, g: 0.1568628, b: 0.4666667, a: 1}
    - _HorizonColor: {r: 0, g: 0.09019608, b: 0.5764706, a: 1}
    - _IntersectionFoamColor1: {r: 1, g: 1, b: 1, a: 1}
    - _IntersectionFoamColor2: {r: 1, g: 1, b: 1, a: 1}
    - _IntersectionFoamMovement: {r: 0, g: 0, b: 0, a: 0}
    - _IntersectionFoamScale: {r: 3.6, g: 6.5, b: 0, a: 0}
    - _ShallowColor: {r: 0, g: 0.1568628, b: 0.4666667, a: 1}
    - _ShoreFadeColor: {r: 1, g: 1, b: 1, a: 1}
    - _SurfaceFoamColor1: {r: 0.8156863, g: 0.96078426, b: 0.972549, a: 1}
    - _SurfaceFoamColor2: {r: 0.3058784, g: 0.6196079, b: 0.8862745, a: 1}
    - _SurfaceFoamMovement: {r: 0, g: 0, b: 0, a: 0}
    - _SurfaceFoamOffset: {r: 1.55, g: 0, b: 0, a: 0}
    - _SurfaceFoamScale: {r: 7.2, g: 7, b: 0, a: 0}
    - _WaveDirections: {r: 0, g: 0, b: 0, a: 0}
    - _WaveVisuals: {r: 0, g: 0.1, b: 0, a: 0}
--- !u!114 &7081185409278601501
MonoBehaviour:
  m_ObjectHideFlags: 11
  m_CorrespondingSourceObject: {fileID: 0}
  m_PrefabInstance: {fileID: 0}
  m_PrefabAsset: {fileID: 0}
  m_GameObject: {fileID: 0}
  m_Enabled: 1
  m_EditorHideFlags: 0
  m_Script: {fileID: 11500000, guid: d0353a89b1f911e48b9e16bdc9f2e058, type: 3}
  m_Name: 
  m_EditorClassIdentifier: 
  version: 1
